2019-11-19 20:14:00.534 INFO  (main) [   ] o.e.j.u.log Logging initialized @489ms to org.eclipse.jetty.util.log.Slf4jLog
2019-11-19 20:14:00.633 WARN  (main) [   ] o.e.j.s.AbstractConnector Ignoring deprecated socket close linger time
2019-11-19 20:14:00.641 INFO  (main) [   ] o.e.j.s.Server jetty-9.4.14.v20181114; built: 2018-11-14T21:20:31.478Z; git: c4550056e785fb5665914545889f21dc136ad9e6; jvm 1.8.0_221-b11
2019-11-19 20:14:00.658 INFO  (main) [   ] o.e.j.d.p.ScanningAppProvider Deployment monitor [file:///Users/sivjanap/Documents/MCS/final_project/solr-7.7.2/server/contexts/] at interval 0
2019-11-19 20:14:00.822 INFO  (main) [   ] o.e.j.w.StandardDescriptorProcessor NO JSP Support for /solr, did not find org.apache.jasper.servlet.JspServlet
2019-11-19 20:14:00.829 INFO  (main) [   ] o.e.j.s.session DefaultSessionIdManager workerName=node0
2019-11-19 20:14:00.829 INFO  (main) [   ] o.e.j.s.session No SessionScavenger set, using defaults
2019-11-19 20:14:00.830 INFO  (main) [   ] o.e.j.s.session node0 Scavenging every 660000ms
2019-11-19 20:14:00.883 INFO  (main) [   ] o.a.s.s.SolrDispatchFilter Using logger factory org.apache.logging.slf4j.Log4jLoggerFactory
2019-11-19 20:14:00.887 INFO  (main) [   ] o.a.s.s.SolrDispatchFilter  ___      _       Welcome to Apache Solr™ version 7.7.2
2019-11-19 20:14:00.887 INFO  (main) [   ] o.a.s.s.SolrDispatchFilter / __| ___| |_ _   Starting in standalone mode on port 8983
2019-11-19 20:14:00.887 INFO  (main) [   ] o.a.s.s.SolrDispatchFilter \__ \/ _ \ | '_|  Install dir: /Users/sivjanap/Documents/MCS/final_project/solr-7.7.2
2019-11-19 20:14:00.887 INFO  (main) [   ] o.a.s.s.SolrDispatchFilter |___/\___/_|_|    Start time: 2019-11-19T20:14:00.887Z
2019-11-19 20:14:00.902 INFO  (main) [   ] o.a.s.c.SolrResourceLoader Using system property solr.solr.home: /Users/sivjanap/Documents/MCS/final_project/solr-7.7.2/server/solr
2019-11-19 20:14:00.907 INFO  (main) [   ] o.a.s.c.SolrXmlConfig Loading container configuration from /Users/sivjanap/Documents/MCS/final_project/solr-7.7.2/server/solr/solr.xml
2019-11-19 20:14:00.936 INFO  (main) [   ] o.a.s.c.SolrXmlConfig MBean server found: com.sun.jmx.mbeanserver.JmxMBeanServer@28c4711c, but no JMX reporters were configured - adding default JMX reporter.
2019-11-19 20:14:01.227 INFO  (main) [   ] o.a.s.h.c.HttpShardHandlerFactory Host whitelist initialized: WhitelistHostChecker [whitelistHosts=null, whitelistHostCheckingEnabled=true]
2019-11-19 20:14:01.474 INFO  (main) [   ] o.a.s.c.TransientSolrCoreCacheDefault Allocating transient cache for 2147483647 transient cores
2019-11-19 20:14:01.476 INFO  (main) [   ] o.a.s.h.a.MetricsHistoryHandler No .system collection, keeping metrics history in memory.
2019-11-19 20:14:01.519 INFO  (main) [   ] o.a.s.m.r.SolrJmxReporter JMX monitoring for 'solr.node' (registry 'solr.node') enabled at server: com.sun.jmx.mbeanserver.JmxMBeanServer@28c4711c
2019-11-19 20:14:01.520 INFO  (main) [   ] o.a.s.m.r.SolrJmxReporter JMX monitoring for 'solr.jvm' (registry 'solr.jvm') enabled at server: com.sun.jmx.mbeanserver.JmxMBeanServer@28c4711c
2019-11-19 20:14:01.524 INFO  (main) [   ] o.a.s.m.r.SolrJmxReporter JMX monitoring for 'solr.jetty' (registry 'solr.jetty') enabled at server: com.sun.jmx.mbeanserver.JmxMBeanServer@28c4711c
2019-11-19 20:14:01.543 INFO  (main) [   ] o.a.s.c.CorePropertiesLocator Found 2 core definitions underneath /Users/sivjanap/Documents/MCS/final_project/solr-7.7.2/server/solr
2019-11-19 20:14:01.544 INFO  (main) [   ] o.a.s.c.CorePropertiesLocator Cores are: [e_store, book_store_core]
2019-11-19 20:14:01.579 INFO  (main) [   ] o.e.j.s.h.ContextHandler Started o.e.j.w.WebAppContext@291caca8{/solr,file:///Users/sivjanap/Documents/MCS/final_project/solr-7.7.2/server/solr-webapp/webapp/,AVAILABLE}{/Users/sivjanap/Documents/MCS/final_project/solr-7.7.2/server/solr-webapp/webapp}
2019-11-19 20:14:01.591 INFO  (coreLoadExecutor-9-thread-1) [   x:e_store] o.a.s.c.SolrResourceLoader [e_store] Added 59 libs to classloader, from paths: [/Users/sivjanap/Documents/MCS/final_project/solr-7.7.2/contrib/clustering/lib, /Users/sivjanap/Documents/MCS/final_project/solr-7.7.2/contrib/extraction/lib, /Users/sivjanap/Documents/MCS/final_project/solr-7.7.2/contrib/langid/lib, /Users/sivjanap/Documents/MCS/final_project/solr-7.7.2/contrib/velocity/lib, /Users/sivjanap/Documents/MCS/final_project/solr-7.7.2/dist]
2019-11-19 20:14:01.591 INFO  (coreLoadExecutor-9-thread-2) [   x:book_store_core] o.a.s.c.SolrResourceLoader [book_store_core] Added 59 libs to classloader, from paths: [/Users/sivjanap/Documents/MCS/final_project/solr-7.7.2/contrib/clustering/lib, /Users/sivjanap/Documents/MCS/final_project/solr-7.7.2/contrib/extraction/lib, /Users/sivjanap/Documents/MCS/final_project/solr-7.7.2/contrib/langid/lib, /Users/sivjanap/Documents/MCS/final_project/solr-7.7.2/contrib/velocity/lib, /Users/sivjanap/Documents/MCS/final_project/solr-7.7.2/dist]
2019-11-19 20:14:01.591 INFO  (main) [   ] o.e.j.s.AbstractConnector Started ServerConnector@13e3c1c7{HTTP/1.1,[http/1.1]}{0.0.0.0:8983}
2019-11-19 20:14:01.591 INFO  (main) [   ] o.e.j.s.Server Started @1547ms
2019-11-19 20:14:01.736 INFO  (coreLoadExecutor-9-thread-1) [   x:e_store] o.a.s.u.SolrIndexConfig IndexWriter infoStream solr logging is enabled
2019-11-19 20:14:01.736 INFO  (coreLoadExecutor-9-thread-2) [   x:book_store_core] o.a.s.u.SolrIndexConfig IndexWriter infoStream solr logging is enabled
2019-11-19 20:14:01.740 INFO  (coreLoadExecutor-9-thread-2) [   x:book_store_core] o.a.s.c.SolrConfig Using Lucene MatchVersion: 7.7.2
2019-11-19 20:14:01.740 INFO  (coreLoadExecutor-9-thread-1) [   x:e_store] o.a.s.c.SolrConfig Using Lucene MatchVersion: 7.7.2
2019-11-19 20:14:01.846 INFO  (coreLoadExecutor-9-thread-1) [   x:e_store] o.a.s.s.IndexSchema [e_store] Schema name=example
2019-11-19 20:14:01.846 INFO  (coreLoadExecutor-9-thread-2) [   x:book_store_core] o.a.s.s.IndexSchema [book_store_core] Schema name=example
2019-11-19 20:14:01.885 WARN  (coreLoadExecutor-9-thread-1) [   x:e_store] o.a.s.c.SolrResourceLoader Solr loaded a deprecated plugin/analysis class [solr.StandardFilterFactory]. Please consult documentation how to replace it accordingly.
2019-11-19 20:14:01.930 INFO  (coreLoadExecutor-9-thread-1) [   x:e_store] o.a.s.s.IndexSchema Loaded schema example/1.6 with uniqueid field uniq_id
2019-11-19 20:14:01.930 INFO  (coreLoadExecutor-9-thread-2) [   x:book_store_core] o.a.s.s.IndexSchema Loaded schema example/1.6 with uniqueid field id
2019-11-19 20:14:01.933 INFO  (coreLoadExecutor-9-thread-1) [   x:e_store] o.a.s.c.CoreContainer Creating SolrCore 'e_store' using configuration from instancedir /Users/sivjanap/Documents/MCS/final_project/solr-7.7.2/server/solr/e_store, trusted=true
2019-11-19 20:14:01.933 INFO  (coreLoadExecutor-9-thread-2) [   x:book_store_core] o.a.s.c.CoreContainer Creating SolrCore 'book_store_core' using configuration from instancedir /Users/sivjanap/Documents/MCS/final_project/solr-7.7.2/server/solr/book_store_core, trusted=true
2019-11-19 20:14:01.955 INFO  (coreLoadExecutor-9-thread-2) [   x:book_store_core] o.a.s.m.r.SolrJmxReporter JMX monitoring for 'solr.core.book_store_core' (registry 'solr.core.book_store_core') enabled at server: com.sun.jmx.mbeanserver.JmxMBeanServer@28c4711c
2019-11-19 20:14:01.955 INFO  (coreLoadExecutor-9-thread-1) [   x:e_store] o.a.s.m.r.SolrJmxReporter JMX monitoring for 'solr.core.e_store' (registry 'solr.core.e_store') enabled at server: com.sun.jmx.mbeanserver.JmxMBeanServer@28c4711c
2019-11-19 20:14:01.967 INFO  (coreLoadExecutor-9-thread-1) [   x:e_store] o.a.s.c.SolrCore [[e_store] ] Opening new SolrCore at [/Users/sivjanap/Documents/MCS/final_project/solr-7.7.2/server/solr/e_store], dataDir=[/Users/sivjanap/Documents/MCS/final_project/solr-7.7.2/server/solr/e_store/data/]
2019-11-19 20:14:01.967 INFO  (coreLoadExecutor-9-thread-2) [   x:book_store_core] o.a.s.c.SolrCore [[book_store_core] ] Opening new SolrCore at [/Users/sivjanap/Documents/MCS/final_project/solr-7.7.2/server/solr/book_store_core], dataDir=[/Users/sivjanap/Documents/MCS/final_project/solr-7.7.2/server/solr/book_store_core/data/]
2019-11-19 20:14:01.999 INFO  (coreLoadExecutor-9-thread-2) [   x:book_store_core] o.a.s.r.XSLTResponseWriter xsltCacheLifetimeSeconds=5
2019-11-19 20:14:02.043 INFO  (coreLoadExecutor-9-thread-1) [   x:e_store] o.a.s.r.XSLTResponseWriter xsltCacheLifetimeSeconds=5
2019-11-19 20:14:02.111 WARN  (coreLoadExecutor-9-thread-1) [   x:e_store] o.a.s.c.PluginBag Multiple entries of searchComponent with name suggest
2019-11-19 20:14:02.331 INFO  (coreLoadExecutor-9-thread-1) [   x:e_store] o.a.s.u.UpdateHandler Using UpdateLog implementation: org.apache.solr.update.UpdateLog
2019-11-19 20:14:02.331 INFO  (coreLoadExecutor-9-thread-2) [   x:book_store_core] o.a.s.u.UpdateHandler Using UpdateLog implementation: org.apache.solr.update.UpdateLog
2019-11-19 20:14:02.331 INFO  (coreLoadExecutor-9-thread-1) [   x:e_store] o.a.s.u.UpdateLog Initializing UpdateLog: dataDir= defaultSyncLevel=FLUSH numRecordsToKeep=100 maxNumLogsToKeep=10 numVersionBuckets=65536
2019-11-19 20:14:02.331 INFO  (coreLoadExecutor-9-thread-2) [   x:book_store_core] o.a.s.u.UpdateLog Initializing UpdateLog: dataDir= defaultSyncLevel=FLUSH numRecordsToKeep=100 maxNumLogsToKeep=10 numVersionBuckets=65536
2019-11-19 20:14:02.340 INFO  (coreLoadExecutor-9-thread-1) [   x:e_store] o.a.s.u.CommitTracker Hard AutoCommit: if uncommitted for 15000ms; 
2019-11-19 20:14:02.340 INFO  (coreLoadExecutor-9-thread-1) [   x:e_store] o.a.s.u.CommitTracker Soft AutoCommit: disabled
2019-11-19 20:14:02.344 INFO  (coreLoadExecutor-9-thread-2) [   x:book_store_core] o.a.s.u.CommitTracker Hard AutoCommit: if uncommitted for 15000ms; 
2019-11-19 20:14:02.344 INFO  (coreLoadExecutor-9-thread-2) [   x:book_store_core] o.a.s.u.CommitTracker Soft AutoCommit: disabled
2019-11-19 20:14:02.356 INFO  (coreLoadExecutor-9-thread-1) [   x:e_store] o.a.s.s.SolrIndexSearcher Opening [Searcher@5892aefc[e_store] main]
2019-11-19 20:14:02.366 INFO  (coreLoadExecutor-9-thread-1) [   x:e_store] o.a.s.r.ManagedResourceStorage File-based storage initialized to use dir: /Users/sivjanap/Documents/MCS/final_project/solr-7.7.2/server/solr/e_store/conf
2019-11-19 20:14:02.384 INFO  (coreLoadExecutor-9-thread-1) [   x:e_store] o.a.s.h.c.SuggestComponent Initializing SuggestComponent
2019-11-19 20:14:02.386 INFO  (coreLoadExecutor-9-thread-1) [   x:e_store] o.a.s.s.s.SolrSuggester init: {name=mySuggester,lookupImpl=FuzzyLookupFactory,storeDir=suggester_fuzzy_dir,dictionaryImpl=DocumentDictionaryFactory,field=product_name_suggest,suggestAnalyzerFieldType=textSuggest,buildOnStartup=false}
2019-11-19 20:14:02.394 INFO  (coreLoadExecutor-9-thread-2) [   x:book_store_core] o.a.s.s.SolrIndexSearcher Opening [Searcher@1f869c4d[book_store_core] main]
2019-11-19 20:14:02.394 INFO  (coreLoadExecutor-9-thread-2) [   x:book_store_core] o.a.s.r.ManagedResourceStorage File-based storage initialized to use dir: /Users/sivjanap/Documents/MCS/final_project/solr-7.7.2/server/solr/book_store_core/conf
2019-11-19 20:14:02.395 INFO  (coreLoadExecutor-9-thread-2) [   x:book_store_core] o.a.s.h.c.SpellCheckComponent Initializing spell checkers
2019-11-19 20:14:02.400 INFO  (coreLoadExecutor-9-thread-2) [   x:book_store_core] o.a.s.s.DirectSolrSpellChecker init: {name=default,field=text,classname=solr.DirectSolrSpellChecker,distanceMeasure=internal,accuracy=0.5,maxEdits=2,minPrefix=1,maxInspections=5,minQueryLength=4,maxQueryFrequency=0.01}
2019-11-19 20:14:02.401 INFO  (coreLoadExecutor-9-thread-1) [   x:e_store] o.a.s.s.s.SolrSuggester Dictionary loaded with params: {name=mySuggester,lookupImpl=FuzzyLookupFactory,storeDir=suggester_fuzzy_dir,dictionaryImpl=DocumentDictionaryFactory,field=product_name_suggest,suggestAnalyzerFieldType=textSuggest,buildOnStartup=false}
2019-11-19 20:14:02.401 INFO  (coreLoadExecutor-9-thread-1) [   x:e_store] o.a.s.h.c.SpellCheckComponent Initializing spell checkers
2019-11-19 20:14:02.401 INFO  (coreLoadExecutor-9-thread-1) [   x:e_store] o.a.s.s.DirectSolrSpellChecker init: {name=default,field=text,classname=solr.DirectSolrSpellChecker,distanceMeasure=internal,accuracy=0.5,maxEdits=2,minPrefix=1,maxInspections=5,minQueryLength=4,maxQueryFrequency=0.01}
2019-11-19 20:14:02.406 INFO  (coreLoadExecutor-9-thread-2) [   x:book_store_core] o.a.s.h.c.SuggestComponent Initializing SuggestComponent
2019-11-19 20:14:02.406 INFO  (coreLoadExecutor-9-thread-1) [   x:e_store] o.a.s.h.c.SuggestComponent Initializing SuggestComponent
2019-11-19 20:14:02.406 INFO  (coreLoadExecutor-9-thread-2) [   x:book_store_core] o.a.s.s.s.SolrSuggester init: {name=mySuggester,lookupImpl=FuzzyLookupFactory,dictionaryImpl=DocumentDictionaryFactory,field=cat,weightField=price,suggestAnalyzerFieldType=string,buildOnStartup=false}
2019-11-19 20:14:02.406 INFO  (coreLoadExecutor-9-thread-1) [   x:e_store] o.a.s.s.s.SolrSuggester init: {name=mySuggester,lookupImpl=FuzzyLookupFactory,dictionaryImpl=DocumentDictionaryFactory,field=cat,weightField=price,suggestAnalyzerFieldType=string,buildOnStartup=false}
2019-11-19 20:14:02.406 INFO  (coreLoadExecutor-9-thread-1) [   x:e_store] o.a.s.s.s.SolrSuggester Dictionary loaded with params: {name=mySuggester,lookupImpl=FuzzyLookupFactory,dictionaryImpl=DocumentDictionaryFactory,field=cat,weightField=price,suggestAnalyzerFieldType=string,buildOnStartup=false}
2019-11-19 20:14:02.406 INFO  (coreLoadExecutor-9-thread-2) [   x:book_store_core] o.a.s.s.s.SolrSuggester Dictionary loaded with params: {name=mySuggester,lookupImpl=FuzzyLookupFactory,dictionaryImpl=DocumentDictionaryFactory,field=cat,weightField=price,suggestAnalyzerFieldType=string,buildOnStartup=false}
2019-11-19 20:14:02.411 INFO  (coreLoadExecutor-9-thread-2) [   x:book_store_core] o.a.s.h.ReplicationHandler Commits will be reserved for 10000ms.
2019-11-19 20:14:02.411 INFO  (coreLoadExecutor-9-thread-1) [   x:e_store] o.a.s.h.ReplicationHandler Commits will be reserved for 10000ms.
2019-11-19 20:14:02.414 INFO  (coreLoadExecutor-9-thread-1) [   x:e_store] o.a.s.u.UpdateLog Could not find max version in index or recent updates, using new clock 1650662511648702464
2019-11-19 20:14:02.417 INFO  (searcherExecutor-10-thread-1-processing-x:e_store) [   x:e_store] o.a.s.c.QuerySenderListener QuerySenderListener sending requests to Searcher@5892aefc[e_store] main{ExitableDirectoryReader(UninvertingDirectoryReader())}
2019-11-19 20:14:02.430 INFO  (searcherExecutor-11-thread-1-processing-x:book_store_core) [   x:book_store_core] o.a.s.c.QuerySenderListener QuerySenderListener sending requests to Searcher@1f869c4d[book_store_core] main{ExitableDirectoryReader(UninvertingDirectoryReader(Uninverting(_19(7.7.2):C13709:[diagnostics={os=Mac OS X, java.vendor=Oracle Corporation, java.version=1.8.0_221, java.vm.version=25.221-b11, lucene.version=7.7.2, mergeMaxNumSegments=-1, os.arch=x86_64, java.runtime.version=1.8.0_221-b11, source=merge, mergeFactor=2, os.version=10.14.6, timestamp=1569704274494}]:[attributes={Lucene50StoredFieldsFormat.mode=BEST_SPEED}])))}
2019-11-19 20:14:02.437 ERROR (searcherExecutor-11-thread-1-processing-x:book_store_core) [   x:book_store_core] o.a.s.h.RequestHandlerBase org.apache.solr.common.SolrException: undefined field text
	at org.apache.solr.schema.IndexSchema.getDynamicFieldType(IndexSchema.java:1305)
	at org.apache.solr.schema.IndexSchema$SolrQueryAnalyzer.getWrappedAnalyzer(IndexSchema.java:442)
	at org.apache.lucene.analysis.DelegatingAnalyzerWrapper$DelegatingReuseStrategy.getReusableComponents(DelegatingAnalyzerWrapper.java:86)
	at org.apache.lucene.analysis.Analyzer.tokenStream(Analyzer.java:191)
	at org.apache.lucene.util.QueryBuilder.createFieldQuery(QueryBuilder.java:239)
	at org.apache.solr.parser.SolrQueryParserBase.newFieldQuery(SolrQueryParserBase.java:518)
	at org.apache.solr.parser.QueryParser.newFieldQuery(QueryParser.java:62)
	at org.apache.solr.parser.SolrQueryParserBase.getFieldQuery(SolrQueryParserBase.java:1148)
	at org.apache.solr.parser.QueryParser.MultiTerm(QueryParser.java:593)
	at org.apache.solr.parser.QueryParser.Query(QueryParser.java:142)
	at org.apache.solr.parser.QueryParser.TopLevelQuery(QueryParser.java:131)
	at org.apache.solr.parser.SolrQueryParserBase.parse(SolrQueryParserBase.java:254)
	at org.apache.solr.search.LuceneQParser.parse(LuceneQParser.java:49)
	at org.apache.solr.search.QParser.getQuery(QParser.java:173)
	at org.apache.solr.handler.component.QueryComponent.prepare(QueryComponent.java:160)
	at org.apache.solr.handler.component.SearchHandler.handleRequestBody(SearchHandler.java:272)
	at org.apache.solr.handler.RequestHandlerBase.handleRequest(RequestHandlerBase.java:199)
	at org.apache.solr.core.SolrCore.execute(SolrCore.java:2551)
	at org.apache.solr.core.QuerySenderListener.newSearcher(QuerySenderListener.java:74)
	at org.apache.solr.core.SolrCore.lambda$getSearcher$17(SolrCore.java:2317)
	at java.util.concurrent.FutureTask.run(FutureTask.java:266)
	at org.apache.solr.common.util.ExecutorUtil$MDCAwareThreadPoolExecutor.lambda$execute$0(ExecutorUtil.java:209)
	at java.util.concurrent.ThreadPoolExecutor.runWorker(ThreadPoolExecutor.java:1149)
	at java.util.concurrent.ThreadPoolExecutor$Worker.run(ThreadPoolExecutor.java:624)
	at java.lang.Thread.run(Thread.java:748)

2019-11-19 20:14:02.438 INFO  (searcherExecutor-11-thread-1-processing-x:book_store_core) [   x:book_store_core] o.a.s.c.S.Request [book_store_core]  webapp=null path=null params={q=static+firstSearcher+warming+in+solrconfig.xml&distrib=false&event=firstSearcher} status=400 QTime=7
2019-11-19 20:14:02.439 INFO  (searcherExecutor-11-thread-1-processing-x:book_store_core) [   x:book_store_core] o.a.s.c.QuerySenderListener QuerySenderListener done.
2019-11-19 20:14:02.439 INFO  (searcherExecutor-11-thread-1-processing-x:book_store_core) [   x:book_store_core] o.a.s.h.c.SpellCheckComponent Loading spell index for spellchecker: default
2019-11-19 20:14:02.439 INFO  (searcherExecutor-11-thread-1-processing-x:book_store_core) [   x:book_store_core] o.a.s.h.c.SpellCheckComponent Loading spell index for spellchecker: wordbreak
2019-11-19 20:14:02.444 INFO  (searcherExecutor-11-thread-1-processing-x:book_store_core) [   x:book_store_core] o.a.s.c.SolrCore [book_store_core] Registered new searcher Searcher@1f869c4d[book_store_core] main{ExitableDirectoryReader(UninvertingDirectoryReader(Uninverting(_19(7.7.2):C13709:[diagnostics={os=Mac OS X, java.vendor=Oracle Corporation, java.version=1.8.0_221, java.vm.version=25.221-b11, lucene.version=7.7.2, mergeMaxNumSegments=-1, os.arch=x86_64, java.runtime.version=1.8.0_221-b11, source=merge, mergeFactor=2, os.version=10.14.6, timestamp=1569704274494}]:[attributes={Lucene50StoredFieldsFormat.mode=BEST_SPEED}])))}
2019-11-19 20:14:02.452 INFO  (searcherExecutor-10-thread-1-processing-x:e_store) [   x:e_store] o.a.s.c.S.Request [e_store]  webapp=null path=null params={q=static+firstSearcher+warming+in+solrconfig.xml&distrib=false&event=firstSearcher} hits=0 status=0 QTime=33
2019-11-19 20:14:02.453 INFO  (searcherExecutor-10-thread-1-processing-x:e_store) [   x:e_store] o.a.s.c.QuerySenderListener QuerySenderListener done.
2019-11-19 20:14:02.453 INFO  (searcherExecutor-10-thread-1-processing-x:e_store) [   x:e_store] o.a.s.h.c.SpellCheckComponent Loading spell index for spellchecker: default
2019-11-19 20:14:02.453 INFO  (searcherExecutor-10-thread-1-processing-x:e_store) [   x:e_store] o.a.s.h.c.SpellCheckComponent Loading spell index for spellchecker: wordbreak
2019-11-19 20:14:02.454 INFO  (searcherExecutor-10-thread-1-processing-x:e_store) [   x:e_store] o.a.s.c.SolrCore [e_store] Registered new searcher Searcher@5892aefc[e_store] main{ExitableDirectoryReader(UninvertingDirectoryReader())}
2019-11-19 20:14:07.345 INFO  (qtp1014166943-23) [   x:e_store] o.a.s.u.p.LogUpdateProcessorFactory [e_store]  webapp=/solr path=/update params={}{add=[c2d766ca982eca8304150849735ffef9 (1650662514095030272), 7f7036a6d550aaa89d34c77bd39a5e48 (1650662514120196096), f449ec65dcbc041b6ae5e6a32717d01b (1650662514129633280), 0973b37acd0c664e3de26e97e5571454 (1650662514130681856), bc940ea42ee6bef5ac7cea3fb5cfbee7 (1650662514131730432), c2a17313954882c1dba461863e98adf2 (1650662514132779008), ce5a6818f7707e2cb61fdcdbba61f5ad (1650662514133827584), 8542703ca9e6ebdf6d742638dfb1f2ca (1650662514135924736), 29c8d290caa451f97b1c32df64477a2c (1650662514141167616), 4044c0ac52c1ee4b28777417651faf42 (1650662514142216192), ... (20000 adds)]} 0 2615
2019-11-19 20:14:07.355 INFO  (qtp1014166943-15) [   x:e_store] o.a.s.u.DirectUpdateHandler2 start commit{_version_=1650662516829716480,optimize=false,openSearcher=true,waitSearcher=true,expungeDeletes=false,softCommit=false,prepareCommit=false}
2019-11-19 20:14:07.355 INFO  (qtp1014166943-15) [   x:e_store] o.a.s.u.SolrIndexWriter Calling setCommitData with IW:org.apache.solr.update.SolrIndexWriter@5819c1c7 commitCommandVersion:1650662516829716480
2019-11-19 20:14:07.922 INFO  (qtp1014166943-15) [   x:e_store] o.a.s.s.SolrIndexSearcher Opening [Searcher@4a5b711b[e_store] main]
2019-11-19 20:14:07.924 INFO  (qtp1014166943-15) [   x:e_store] o.a.s.u.DirectUpdateHandler2 end_commit_flush
2019-11-19 20:14:07.924 INFO  (searcherExecutor-10-thread-1-processing-x:e_store) [   x:e_store] o.a.s.c.QuerySenderListener QuerySenderListener sending requests to Searcher@4a5b711b[e_store] main{ExitableDirectoryReader(UninvertingDirectoryReader(Uninverting(_0(7.7.2):C20000:[diagnostics={os=Mac OS X, java.vendor=Oracle Corporation, java.version=1.8.0_221, java.vm.version=25.221-b11, lucene.version=7.7.2, os.arch=x86_64, java.runtime.version=1.8.0_221-b11, source=flush, os.version=10.15, timestamp=1574194447897}]:[attributes={Lucene50StoredFieldsFormat.mode=BEST_SPEED}])))}
2019-11-19 20:14:07.924 INFO  (searcherExecutor-10-thread-1-processing-x:e_store) [   x:e_store] o.a.s.c.QuerySenderListener QuerySenderListener done.
2019-11-19 20:14:07.928 INFO  (searcherExecutor-10-thread-1-processing-x:e_store) [   x:e_store] o.a.s.c.SolrCore [e_store] Registered new searcher Searcher@4a5b711b[e_store] main{ExitableDirectoryReader(UninvertingDirectoryReader(Uninverting(_0(7.7.2):C20000:[diagnostics={os=Mac OS X, java.vendor=Oracle Corporation, java.version=1.8.0_221, java.vm.version=25.221-b11, lucene.version=7.7.2, os.arch=x86_64, java.runtime.version=1.8.0_221-b11, source=flush, os.version=10.15, timestamp=1574194447897}]:[attributes={Lucene50StoredFieldsFormat.mode=BEST_SPEED}])))}
2019-11-19 20:14:07.931 INFO  (qtp1014166943-15) [   x:e_store] o.a.s.u.p.LogUpdateProcessorFactory [e_store]  webapp=/solr path=/update params={commit=true}{commit=} 0 576
2019-11-19 20:14:21.479 INFO  (qtp1014166943-16) [   x:e_store] o.a.s.c.PluginBag Going to create a new requestHandler with {type = requestHandler,name = /suggest,class = solr.SearchHandler,attributes = {startup=lazy, name=/suggest, class=solr.SearchHandler},args = {defaults={suggest=true,suggest.count=10},components=[suggest]}} 
2019-11-19 20:14:21.479 INFO  (qtp1014166943-16) [   x:e_store] o.a.s.h.c.SuggestComponent SuggestComponent prepare with : suggest.count=10&suggest=true&suggest.dictionary=mySuggester&suggest.build=true&wt=json&suggest.q=shoes
2019-11-19 20:14:21.480 INFO  (qtp1014166943-16) [   x:e_store] o.a.s.s.s.SolrSuggester SolrSuggester.build(mySuggester)
2019-11-19 20:14:21.647 INFO  (qtp1014166943-16) [   x:e_store] o.a.s.h.c.SuggestComponent SuggestComponent process with : suggest.count=10&suggest=true&suggest.dictionary=mySuggester&suggest.build=true&wt=json&suggest.q=shoes
2019-11-19 20:14:21.647 INFO  (qtp1014166943-16) [   x:e_store] o.a.s.c.S.Request [e_store]  webapp=/solr path=/suggest params={suggest.build=true&suggest.q=shoes&suggest.dictionary=mySuggester&wt=json} status=0 QTime=168
2019-11-19 20:14:29.052 INFO  (qtp1014166943-23) [   x:e_store] o.a.s.h.c.SuggestComponent SuggestComponent prepare with : suggest.count=10&suggest=true&suggest.dictionary=mySuggester&suggest.build=true&wt=json&suggest.q=shoes
2019-11-19 20:14:29.052 INFO  (qtp1014166943-23) [   x:e_store] o.a.s.s.s.SolrSuggester SolrSuggester.build(mySuggester)
2019-11-19 20:14:29.185 INFO  (qtp1014166943-23) [   x:e_store] o.a.s.h.c.SuggestComponent SuggestComponent process with : suggest.count=10&suggest=true&suggest.dictionary=mySuggester&suggest.build=true&wt=json&suggest.q=shoes
2019-11-19 20:14:29.185 INFO  (qtp1014166943-23) [   x:e_store] o.a.s.c.S.Request [e_store]  webapp=/solr path=/suggest params={suggest.build=true&suggest.q=shoes&suggest.dictionary=mySuggester&wt=json} status=0 QTime=133
2019-11-19 20:14:29.674 INFO  (qtp1014166943-23) [   x:e_store] o.a.s.h.c.SuggestComponent SuggestComponent prepare with : suggest.count=10&suggest=true&suggest.dictionary=mySuggester&suggest.build=true&wt=json&suggest.q=shoes
2019-11-19 20:14:29.674 INFO  (qtp1014166943-23) [   x:e_store] o.a.s.s.s.SolrSuggester SolrSuggester.build(mySuggester)
2019-11-19 20:14:29.813 INFO  (qtp1014166943-23) [   x:e_store] o.a.s.h.c.SuggestComponent SuggestComponent process with : suggest.count=10&suggest=true&suggest.dictionary=mySuggester&suggest.build=true&wt=json&suggest.q=shoes
2019-11-19 20:14:29.814 INFO  (qtp1014166943-23) [   x:e_store] o.a.s.c.S.Request [e_store]  webapp=/solr path=/suggest params={suggest.build=true&suggest.q=shoes&suggest.dictionary=mySuggester&wt=json} status=0 QTime=139
2019-11-19 20:14:30.190 INFO  (qtp1014166943-23) [   x:e_store] o.a.s.h.c.SuggestComponent SuggestComponent prepare with : suggest.count=10&suggest=true&suggest.dictionary=mySuggester&suggest.build=true&wt=json&suggest.q=shoes
2019-11-19 20:14:30.190 INFO  (qtp1014166943-23) [   x:e_store] o.a.s.s.s.SolrSuggester SolrSuggester.build(mySuggester)
2019-11-19 20:14:30.320 INFO  (qtp1014166943-23) [   x:e_store] o.a.s.h.c.SuggestComponent SuggestComponent process with : suggest.count=10&suggest=true&suggest.dictionary=mySuggester&suggest.build=true&wt=json&suggest.q=shoes
2019-11-19 20:14:30.320 INFO  (qtp1014166943-23) [   x:e_store] o.a.s.c.S.Request [e_store]  webapp=/solr path=/suggest params={suggest.build=true&suggest.q=shoes&suggest.dictionary=mySuggester&wt=json} status=0 QTime=130
2019-11-19 20:14:30.683 INFO  (qtp1014166943-23) [   x:e_store] o.a.s.h.c.SuggestComponent SuggestComponent prepare with : suggest.count=10&suggest=true&suggest.dictionary=mySuggester&suggest.build=true&wt=json&suggest.q=shoes
2019-11-19 20:14:30.683 INFO  (qtp1014166943-23) [   x:e_store] o.a.s.s.s.SolrSuggester SolrSuggester.build(mySuggester)
2019-11-19 20:14:30.812 INFO  (qtp1014166943-23) [   x:e_store] o.a.s.h.c.SuggestComponent SuggestComponent process with : suggest.count=10&suggest=true&suggest.dictionary=mySuggester&suggest.build=true&wt=json&suggest.q=shoes
2019-11-19 20:14:30.812 INFO  (qtp1014166943-23) [   x:e_store] o.a.s.c.S.Request [e_store]  webapp=/solr path=/suggest params={suggest.build=true&suggest.q=shoes&suggest.dictionary=mySuggester&wt=json} status=0 QTime=129
2019-11-19 20:14:34.308 INFO  (qtp1014166943-23) [   x:e_store] o.a.s.h.c.SuggestComponent SuggestComponent prepare with : suggest.count=10&suggest=true&suggest.dictionary=mySuggester&wt=json&suggest.q=shoes
2019-11-19 20:14:34.308 INFO  (qtp1014166943-23) [   x:e_store] o.a.s.h.c.SuggestComponent SuggestComponent process with : suggest.count=10&suggest=true&suggest.dictionary=mySuggester&wt=json&suggest.q=shoes
2019-11-19 20:14:34.308 INFO  (qtp1014166943-23) [   x:e_store] o.a.s.c.S.Request [e_store]  webapp=/solr path=/suggest params={suggest.q=shoes&suggest.dictionary=mySuggester&wt=json} status=0 QTime=0
2019-11-19 20:15:20.758 INFO  (ShutdownMonitor) [   ] o.e.j.s.AbstractConnector Stopped ServerConnector@13e3c1c7{HTTP/1.1,[http/1.1]}{0.0.0.0:8983}
2019-11-19 20:15:20.758 INFO  (ShutdownMonitor) [   ] o.e.j.s.session node0 Stopped scavenging
2019-11-19 20:15:20.759 INFO  (ShutdownMonitor) [   ] o.a.s.c.CoreContainer Shutting down CoreContainer instance=613784740
2019-11-19 20:15:20.760 INFO  (coreCloseExecutor-20-thread-1) [   x:e_store] o.a.s.c.SolrCore [e_store]  CLOSING SolrCore org.apache.solr.core.SolrCore@2f9f0894
2019-11-19 20:15:20.760 INFO  (coreCloseExecutor-20-thread-1) [   x:e_store] o.a.s.m.SolrMetricManager Closing metric reporters for registry=solr.core.e_store, tag=2f9f0894
2019-11-19 20:15:20.760 INFO  (coreCloseExecutor-20-thread-2) [   x:book_store_core] o.a.s.c.SolrCore [book_store_core]  CLOSING SolrCore org.apache.solr.core.SolrCore@438acc33
2019-11-19 20:15:20.761 INFO  (coreCloseExecutor-20-thread-1) [   x:e_store] o.a.s.m.r.SolrJmxReporter Closing reporter [org.apache.solr.metrics.reporters.SolrJmxReporter@ee395: rootName = null, domain = solr.core.e_store, service url = null, agent id = null] for registry solr.core.e_store / com.codahale.metrics.MetricRegistry@44e6b5f7
2019-11-19 20:15:20.769 INFO  (coreCloseExecutor-20-thread-2) [   x:book_store_core] o.a.s.m.SolrMetricManager Closing metric reporters for registry=solr.core.book_store_core, tag=438acc33
2019-11-19 20:15:20.769 INFO  (coreCloseExecutor-20-thread-2) [   x:book_store_core] o.a.s.m.r.SolrJmxReporter Closing reporter [org.apache.solr.metrics.reporters.SolrJmxReporter@71087862: rootName = null, domain = solr.core.book_store_core, service url = null, agent id = null] for registry solr.core.book_store_core / com.codahale.metrics.MetricRegistry@757d0702
2019-11-19 20:15:20.778 INFO  (ShutdownMonitor) [   ] o.a.s.m.SolrMetricManager Closing metric reporters for registry=solr.node, tag=null
2019-11-19 20:15:20.778 INFO  (ShutdownMonitor) [   ] o.a.s.m.r.SolrJmxReporter Closing reporter [org.apache.solr.metrics.reporters.SolrJmxReporter@2e554a3b: rootName = null, domain = solr.node, service url = null, agent id = null] for registry solr.node / com.codahale.metrics.MetricRegistry@8999414
2019-11-19 20:15:20.780 INFO  (ShutdownMonitor) [   ] o.a.s.m.SolrMetricManager Closing metric reporters for registry=solr.jvm, tag=null
2019-11-19 20:15:20.780 INFO  (ShutdownMonitor) [   ] o.a.s.m.r.SolrJmxReporter Closing reporter [org.apache.solr.metrics.reporters.SolrJmxReporter@5553d0f5: rootName = null, domain = solr.jvm, service url = null, agent id = null] for registry solr.jvm / com.codahale.metrics.MetricRegistry@40136437
2019-11-19 20:15:20.781 INFO  (ShutdownMonitor) [   ] o.a.s.m.SolrMetricManager Closing metric reporters for registry=solr.jetty, tag=null
2019-11-19 20:15:20.781 INFO  (ShutdownMonitor) [   ] o.a.s.m.r.SolrJmxReporter Closing reporter [org.apache.solr.metrics.reporters.SolrJmxReporter@1af687fe: rootName = null, domain = solr.jetty, service url = null, agent id = null] for registry solr.jetty / com.codahale.metrics.MetricRegistry@1401d2d8
2019-11-19 20:15:20.786 INFO  (ShutdownMonitor) [   ] o.e.j.s.h.ContextHandler Stopped o.e.j.w.WebAppContext@291caca8{/solr,null,UNAVAILABLE}{/Users/sivjanap/Documents/MCS/final_project/solr-7.7.2/server/solr-webapp/webapp}
