2019-11-20 15:40:17.092 INFO  (main) [   ] o.e.j.u.log Logging initialized @491ms to org.eclipse.jetty.util.log.Slf4jLog
2019-11-20 15:40:17.189 WARN  (main) [   ] o.e.j.s.AbstractConnector Ignoring deprecated socket close linger time
2019-11-20 15:40:17.197 INFO  (main) [   ] o.e.j.s.Server jetty-9.4.14.v20181114; built: 2018-11-14T21:20:31.478Z; git: c4550056e785fb5665914545889f21dc136ad9e6; jvm 1.8.0_221-b11
2019-11-20 15:40:17.214 INFO  (main) [   ] o.e.j.d.p.ScanningAppProvider Deployment monitor [file:///Users/sivjanap/Documents/MCS/final_project/solr-7.7.2/server/contexts/] at interval 0
2019-11-20 15:40:17.384 INFO  (main) [   ] o.e.j.w.StandardDescriptorProcessor NO JSP Support for /solr, did not find org.apache.jasper.servlet.JspServlet
2019-11-20 15:40:17.391 INFO  (main) [   ] o.e.j.s.session DefaultSessionIdManager workerName=node0
2019-11-20 15:40:17.391 INFO  (main) [   ] o.e.j.s.session No SessionScavenger set, using defaults
2019-11-20 15:40:17.393 INFO  (main) [   ] o.e.j.s.session node0 Scavenging every 660000ms
2019-11-20 15:40:17.446 INFO  (main) [   ] o.a.s.s.SolrDispatchFilter Using logger factory org.apache.logging.slf4j.Log4jLoggerFactory
2019-11-20 15:40:17.450 INFO  (main) [   ] o.a.s.s.SolrDispatchFilter  ___      _       Welcome to Apache Solr™ version 7.7.2
2019-11-20 15:40:17.450 INFO  (main) [   ] o.a.s.s.SolrDispatchFilter / __| ___| |_ _   Starting in standalone mode on port 8983
2019-11-20 15:40:17.450 INFO  (main) [   ] o.a.s.s.SolrDispatchFilter \__ \/ _ \ | '_|  Install dir: /Users/sivjanap/Documents/MCS/final_project/solr-7.7.2
2019-11-20 15:40:17.451 INFO  (main) [   ] o.a.s.s.SolrDispatchFilter |___/\___/_|_|    Start time: 2019-11-20T15:40:17.451Z
2019-11-20 15:40:17.466 INFO  (main) [   ] o.a.s.c.SolrResourceLoader Using system property solr.solr.home: /Users/sivjanap/Documents/MCS/final_project/solr-7.7.2/server/solr
2019-11-20 15:40:17.470 INFO  (main) [   ] o.a.s.c.SolrXmlConfig Loading container configuration from /Users/sivjanap/Documents/MCS/final_project/solr-7.7.2/server/solr/solr.xml
2019-11-20 15:40:17.501 INFO  (main) [   ] o.a.s.c.SolrXmlConfig MBean server found: com.sun.jmx.mbeanserver.JmxMBeanServer@28c4711c, but no JMX reporters were configured - adding default JMX reporter.
2019-11-20 15:40:17.915 INFO  (main) [   ] o.a.s.h.c.HttpShardHandlerFactory Host whitelist initialized: WhitelistHostChecker [whitelistHosts=null, whitelistHostCheckingEnabled=true]
2019-11-20 15:40:18.194 INFO  (main) [   ] o.a.s.c.TransientSolrCoreCacheDefault Allocating transient cache for 2147483647 transient cores
2019-11-20 15:40:18.196 INFO  (main) [   ] o.a.s.h.a.MetricsHistoryHandler No .system collection, keeping metrics history in memory.
2019-11-20 15:40:18.243 INFO  (main) [   ] o.a.s.m.r.SolrJmxReporter JMX monitoring for 'solr.node' (registry 'solr.node') enabled at server: com.sun.jmx.mbeanserver.JmxMBeanServer@28c4711c
2019-11-20 15:40:18.243 INFO  (main) [   ] o.a.s.m.r.SolrJmxReporter JMX monitoring for 'solr.jvm' (registry 'solr.jvm') enabled at server: com.sun.jmx.mbeanserver.JmxMBeanServer@28c4711c
2019-11-20 15:40:18.248 INFO  (main) [   ] o.a.s.m.r.SolrJmxReporter JMX monitoring for 'solr.jetty' (registry 'solr.jetty') enabled at server: com.sun.jmx.mbeanserver.JmxMBeanServer@28c4711c
2019-11-20 15:40:18.269 INFO  (main) [   ] o.a.s.c.CorePropertiesLocator Found 2 core definitions underneath /Users/sivjanap/Documents/MCS/final_project/solr-7.7.2/server/solr
2019-11-20 15:40:18.269 INFO  (main) [   ] o.a.s.c.CorePropertiesLocator Cores are: [e_store, book_store_core]
2019-11-20 15:40:18.308 INFO  (main) [   ] o.e.j.s.h.ContextHandler Started o.e.j.w.WebAppContext@291caca8{/solr,file:///Users/sivjanap/Documents/MCS/final_project/solr-7.7.2/server/solr-webapp/webapp/,AVAILABLE}{/Users/sivjanap/Documents/MCS/final_project/solr-7.7.2/server/solr-webapp/webapp}
2019-11-20 15:40:18.321 INFO  (coreLoadExecutor-9-thread-1) [   x:e_store] o.a.s.c.SolrResourceLoader [e_store] Added 59 libs to classloader, from paths: [/Users/sivjanap/Documents/MCS/final_project/solr-7.7.2/contrib/clustering/lib, /Users/sivjanap/Documents/MCS/final_project/solr-7.7.2/contrib/extraction/lib, /Users/sivjanap/Documents/MCS/final_project/solr-7.7.2/contrib/langid/lib, /Users/sivjanap/Documents/MCS/final_project/solr-7.7.2/contrib/velocity/lib, /Users/sivjanap/Documents/MCS/final_project/solr-7.7.2/dist]
2019-11-20 15:40:18.321 INFO  (coreLoadExecutor-9-thread-2) [   x:book_store_core] o.a.s.c.SolrResourceLoader [book_store_core] Added 59 libs to classloader, from paths: [/Users/sivjanap/Documents/MCS/final_project/solr-7.7.2/contrib/clustering/lib, /Users/sivjanap/Documents/MCS/final_project/solr-7.7.2/contrib/extraction/lib, /Users/sivjanap/Documents/MCS/final_project/solr-7.7.2/contrib/langid/lib, /Users/sivjanap/Documents/MCS/final_project/solr-7.7.2/contrib/velocity/lib, /Users/sivjanap/Documents/MCS/final_project/solr-7.7.2/dist]
2019-11-20 15:40:18.323 INFO  (main) [   ] o.e.j.s.AbstractConnector Started ServerConnector@13e3c1c7{HTTP/1.1,[http/1.1]}{0.0.0.0:8983}
2019-11-20 15:40:18.323 INFO  (main) [   ] o.e.j.s.Server Started @1724ms
2019-11-20 15:40:18.473 INFO  (coreLoadExecutor-9-thread-2) [   x:book_store_core] o.a.s.u.SolrIndexConfig IndexWriter infoStream solr logging is enabled
2019-11-20 15:40:18.473 INFO  (coreLoadExecutor-9-thread-1) [   x:e_store] o.a.s.u.SolrIndexConfig IndexWriter infoStream solr logging is enabled
2019-11-20 15:40:18.478 INFO  (coreLoadExecutor-9-thread-2) [   x:book_store_core] o.a.s.c.SolrConfig Using Lucene MatchVersion: 7.7.2
2019-11-20 15:40:18.478 INFO  (coreLoadExecutor-9-thread-1) [   x:e_store] o.a.s.c.SolrConfig Using Lucene MatchVersion: 7.7.2
2019-11-20 15:40:18.590 INFO  (coreLoadExecutor-9-thread-2) [   x:book_store_core] o.a.s.s.IndexSchema [book_store_core] Schema name=example
2019-11-20 15:40:18.590 INFO  (coreLoadExecutor-9-thread-1) [   x:e_store] o.a.s.s.IndexSchema [e_store] Schema name=example
2019-11-20 15:40:18.709 INFO  (coreLoadExecutor-9-thread-2) [   x:book_store_core] o.a.s.s.IndexSchema Loaded schema example/1.6 with uniqueid field id
2019-11-20 15:40:18.709 INFO  (coreLoadExecutor-9-thread-1) [   x:e_store] o.a.s.s.IndexSchema Loaded schema example/1.6 with uniqueid field uniq_id
2019-11-20 15:40:18.712 INFO  (coreLoadExecutor-9-thread-2) [   x:book_store_core] o.a.s.c.CoreContainer Creating SolrCore 'book_store_core' using configuration from instancedir /Users/sivjanap/Documents/MCS/final_project/solr-7.7.2/server/solr/book_store_core, trusted=true
2019-11-20 15:40:18.712 INFO  (coreLoadExecutor-9-thread-1) [   x:e_store] o.a.s.c.CoreContainer Creating SolrCore 'e_store' using configuration from instancedir /Users/sivjanap/Documents/MCS/final_project/solr-7.7.2/server/solr/e_store, trusted=true
2019-11-20 15:40:18.736 INFO  (coreLoadExecutor-9-thread-2) [   x:book_store_core] o.a.s.m.r.SolrJmxReporter JMX monitoring for 'solr.core.book_store_core' (registry 'solr.core.book_store_core') enabled at server: com.sun.jmx.mbeanserver.JmxMBeanServer@28c4711c
2019-11-20 15:40:18.736 INFO  (coreLoadExecutor-9-thread-1) [   x:e_store] o.a.s.m.r.SolrJmxReporter JMX monitoring for 'solr.core.e_store' (registry 'solr.core.e_store') enabled at server: com.sun.jmx.mbeanserver.JmxMBeanServer@28c4711c
2019-11-20 15:40:18.749 INFO  (coreLoadExecutor-9-thread-1) [   x:e_store] o.a.s.c.SolrCore [[e_store] ] Opening new SolrCore at [/Users/sivjanap/Documents/MCS/final_project/solr-7.7.2/server/solr/e_store], dataDir=[/Users/sivjanap/Documents/MCS/final_project/solr-7.7.2/server/solr/e_store/data/]
2019-11-20 15:40:18.749 INFO  (coreLoadExecutor-9-thread-2) [   x:book_store_core] o.a.s.c.SolrCore [[book_store_core] ] Opening new SolrCore at [/Users/sivjanap/Documents/MCS/final_project/solr-7.7.2/server/solr/book_store_core], dataDir=[/Users/sivjanap/Documents/MCS/final_project/solr-7.7.2/server/solr/book_store_core/data/]
2019-11-20 15:40:18.783 INFO  (coreLoadExecutor-9-thread-2) [   x:book_store_core] o.a.s.r.XSLTResponseWriter xsltCacheLifetimeSeconds=5
2019-11-20 15:40:18.783 INFO  (coreLoadExecutor-9-thread-1) [   x:e_store] o.a.s.r.XSLTResponseWriter xsltCacheLifetimeSeconds=5
2019-11-20 15:40:19.106 INFO  (coreLoadExecutor-9-thread-2) [   x:book_store_core] o.a.s.u.UpdateHandler Using UpdateLog implementation: org.apache.solr.update.UpdateLog
2019-11-20 15:40:19.106 INFO  (coreLoadExecutor-9-thread-1) [   x:e_store] o.a.s.u.UpdateHandler Using UpdateLog implementation: org.apache.solr.update.UpdateLog
2019-11-20 15:40:19.106 INFO  (coreLoadExecutor-9-thread-2) [   x:book_store_core] o.a.s.u.UpdateLog Initializing UpdateLog: dataDir= defaultSyncLevel=FLUSH numRecordsToKeep=100 maxNumLogsToKeep=10 numVersionBuckets=65536
2019-11-20 15:40:19.106 INFO  (coreLoadExecutor-9-thread-1) [   x:e_store] o.a.s.u.UpdateLog Initializing UpdateLog: dataDir= defaultSyncLevel=FLUSH numRecordsToKeep=100 maxNumLogsToKeep=10 numVersionBuckets=65536
2019-11-20 15:40:19.132 INFO  (coreLoadExecutor-9-thread-1) [   x:e_store] o.a.s.u.CommitTracker Hard AutoCommit: if uncommitted for 15000ms; 
2019-11-20 15:40:19.132 INFO  (coreLoadExecutor-9-thread-2) [   x:book_store_core] o.a.s.u.CommitTracker Hard AutoCommit: if uncommitted for 15000ms; 
2019-11-20 15:40:19.132 INFO  (coreLoadExecutor-9-thread-1) [   x:e_store] o.a.s.u.CommitTracker Soft AutoCommit: disabled
2019-11-20 15:40:19.132 INFO  (coreLoadExecutor-9-thread-2) [   x:book_store_core] o.a.s.u.CommitTracker Soft AutoCommit: disabled
2019-11-20 15:40:19.217 INFO  (coreLoadExecutor-9-thread-2) [   x:book_store_core] o.a.s.s.SolrIndexSearcher Opening [Searcher@308a2376[book_store_core] main]
2019-11-20 15:40:19.217 INFO  (coreLoadExecutor-9-thread-1) [   x:e_store] o.a.s.s.SolrIndexSearcher Opening [Searcher@319b1752[e_store] main]
2019-11-20 15:40:19.226 INFO  (coreLoadExecutor-9-thread-2) [   x:book_store_core] o.a.s.r.ManagedResourceStorage File-based storage initialized to use dir: /Users/sivjanap/Documents/MCS/final_project/solr-7.7.2/server/solr/book_store_core/conf
2019-11-20 15:40:19.226 INFO  (coreLoadExecutor-9-thread-1) [   x:e_store] o.a.s.r.ManagedResourceStorage File-based storage initialized to use dir: /Users/sivjanap/Documents/MCS/final_project/solr-7.7.2/server/solr/e_store/conf
2019-11-20 15:40:19.240 INFO  (coreLoadExecutor-9-thread-2) [   x:book_store_core] o.a.s.h.c.SpellCheckComponent Initializing spell checkers
2019-11-20 15:40:19.240 INFO  (coreLoadExecutor-9-thread-1) [   x:e_store] o.a.s.h.c.SpellCheckComponent Initializing spell checkers
2019-11-20 15:40:19.245 INFO  (coreLoadExecutor-9-thread-2) [   x:book_store_core] o.a.s.s.DirectSolrSpellChecker init: {name=default,field=text,classname=solr.DirectSolrSpellChecker,distanceMeasure=internal,accuracy=0.5,maxEdits=2,minPrefix=1,maxInspections=5,minQueryLength=4,maxQueryFrequency=0.01}
2019-11-20 15:40:19.245 INFO  (coreLoadExecutor-9-thread-1) [   x:e_store] o.a.s.s.DirectSolrSpellChecker init: {name=default,field=text,classname=solr.DirectSolrSpellChecker,distanceMeasure=internal,accuracy=0.5,maxEdits=2,minPrefix=1,maxInspections=5,minQueryLength=4,maxQueryFrequency=0.01}
2019-11-20 15:40:19.250 INFO  (coreLoadExecutor-9-thread-2) [   x:book_store_core] o.a.s.h.c.SuggestComponent Initializing SuggestComponent
2019-11-20 15:40:19.250 INFO  (coreLoadExecutor-9-thread-1) [   x:e_store] o.a.s.h.c.SuggestComponent Initializing SuggestComponent
2019-11-20 15:40:19.252 INFO  (coreLoadExecutor-9-thread-2) [   x:book_store_core] o.a.s.s.s.SolrSuggester init: {name=mySuggester,lookupImpl=FuzzyLookupFactory,dictionaryImpl=DocumentDictionaryFactory,field=cat,weightField=price,suggestAnalyzerFieldType=string,buildOnStartup=false}
2019-11-20 15:40:19.252 INFO  (coreLoadExecutor-9-thread-1) [   x:e_store] o.a.s.s.s.SolrSuggester init: {name=mySuggester,lookupImpl=FuzzyLookupFactory,dictionaryImpl=DocumentDictionaryFactory,field=cat,weightField=price,suggestAnalyzerFieldType=string,buildOnStartup=false}
2019-11-20 15:40:19.264 INFO  (coreLoadExecutor-9-thread-2) [   x:book_store_core] o.a.s.s.s.SolrSuggester Dictionary loaded with params: {name=mySuggester,lookupImpl=FuzzyLookupFactory,dictionaryImpl=DocumentDictionaryFactory,field=cat,weightField=price,suggestAnalyzerFieldType=string,buildOnStartup=false}
2019-11-20 15:40:19.264 INFO  (coreLoadExecutor-9-thread-1) [   x:e_store] o.a.s.s.s.SolrSuggester Dictionary loaded with params: {name=mySuggester,lookupImpl=FuzzyLookupFactory,dictionaryImpl=DocumentDictionaryFactory,field=cat,weightField=price,suggestAnalyzerFieldType=string,buildOnStartup=false}
2019-11-20 15:40:19.268 INFO  (coreLoadExecutor-9-thread-2) [   x:book_store_core] o.a.s.h.ReplicationHandler Commits will be reserved for 10000ms.
2019-11-20 15:40:19.268 INFO  (coreLoadExecutor-9-thread-1) [   x:e_store] o.a.s.h.ReplicationHandler Commits will be reserved for 10000ms.
2019-11-20 15:40:19.288 INFO  (searcherExecutor-10-thread-1-processing-x:book_store_core) [   x:book_store_core] o.a.s.c.QuerySenderListener QuerySenderListener sending requests to Searcher@308a2376[book_store_core] main{ExitableDirectoryReader(UninvertingDirectoryReader(Uninverting(_19(7.7.2):C13709:[diagnostics={os=Mac OS X, java.vendor=Oracle Corporation, java.version=1.8.0_221, java.vm.version=25.221-b11, lucene.version=7.7.2, mergeMaxNumSegments=-1, os.arch=x86_64, java.runtime.version=1.8.0_221-b11, source=merge, mergeFactor=2, os.version=10.14.6, timestamp=1569704274494}]:[attributes={Lucene50StoredFieldsFormat.mode=BEST_SPEED}])))}
2019-11-20 15:40:19.288 INFO  (searcherExecutor-11-thread-1-processing-x:e_store) [   x:e_store] o.a.s.c.QuerySenderListener QuerySenderListener sending requests to Searcher@319b1752[e_store] main{ExitableDirectoryReader(UninvertingDirectoryReader(Uninverting(_5(7.7.2):C20000:[diagnostics={java.runtime.version=1.8.0_221-b11, java.vendor=Oracle Corporation, java.version=1.8.0_221, java.vm.version=25.221-b11, lucene.version=7.7.2, os=Mac OS X, os.arch=x86_64, os.version=10.15, source=flush, timestamp=1574264329645}]:[attributes={Lucene50StoredFieldsFormat.mode=BEST_SPEED}])))}
2019-11-20 15:40:19.304 ERROR (searcherExecutor-10-thread-1-processing-x:book_store_core) [   x:book_store_core] o.a.s.h.RequestHandlerBase org.apache.solr.common.SolrException: undefined field text
	at org.apache.solr.schema.IndexSchema.getDynamicFieldType(IndexSchema.java:1305)
	at org.apache.solr.schema.IndexSchema$SolrQueryAnalyzer.getWrappedAnalyzer(IndexSchema.java:442)
	at org.apache.lucene.analysis.DelegatingAnalyzerWrapper$DelegatingReuseStrategy.getReusableComponents(DelegatingAnalyzerWrapper.java:86)
	at org.apache.lucene.analysis.Analyzer.tokenStream(Analyzer.java:191)
	at org.apache.lucene.util.QueryBuilder.createFieldQuery(QueryBuilder.java:239)
	at org.apache.solr.parser.SolrQueryParserBase.newFieldQuery(SolrQueryParserBase.java:518)
	at org.apache.solr.parser.QueryParser.newFieldQuery(QueryParser.java:62)
	at org.apache.solr.parser.SolrQueryParserBase.getFieldQuery(SolrQueryParserBase.java:1148)
	at org.apache.solr.parser.QueryParser.MultiTerm(QueryParser.java:593)
	at org.apache.solr.parser.QueryParser.Query(QueryParser.java:142)
	at org.apache.solr.parser.QueryParser.TopLevelQuery(QueryParser.java:131)
	at org.apache.solr.parser.SolrQueryParserBase.parse(SolrQueryParserBase.java:254)
	at org.apache.solr.search.LuceneQParser.parse(LuceneQParser.java:49)
	at org.apache.solr.search.QParser.getQuery(QParser.java:173)
	at org.apache.solr.handler.component.QueryComponent.prepare(QueryComponent.java:160)
	at org.apache.solr.handler.component.SearchHandler.handleRequestBody(SearchHandler.java:272)
	at org.apache.solr.handler.RequestHandlerBase.handleRequest(RequestHandlerBase.java:199)
	at org.apache.solr.core.SolrCore.execute(SolrCore.java:2551)
	at org.apache.solr.core.QuerySenderListener.newSearcher(QuerySenderListener.java:74)
	at org.apache.solr.core.SolrCore.lambda$getSearcher$17(SolrCore.java:2317)
	at java.util.concurrent.FutureTask.run(FutureTask.java:266)
	at org.apache.solr.common.util.ExecutorUtil$MDCAwareThreadPoolExecutor.lambda$execute$0(ExecutorUtil.java:209)
	at java.util.concurrent.ThreadPoolExecutor.runWorker(ThreadPoolExecutor.java:1149)
	at java.util.concurrent.ThreadPoolExecutor$Worker.run(ThreadPoolExecutor.java:624)
	at java.lang.Thread.run(Thread.java:748)

2019-11-20 15:40:19.304 INFO  (searcherExecutor-10-thread-1-processing-x:book_store_core) [   x:book_store_core] o.a.s.c.S.Request [book_store_core]  webapp=null path=null params={q=static+firstSearcher+warming+in+solrconfig.xml&distrib=false&event=firstSearcher} status=400 QTime=14
2019-11-20 15:40:19.304 INFO  (searcherExecutor-10-thread-1-processing-x:book_store_core) [   x:book_store_core] o.a.s.c.QuerySenderListener QuerySenderListener done.
2019-11-20 15:40:19.304 INFO  (searcherExecutor-10-thread-1-processing-x:book_store_core) [   x:book_store_core] o.a.s.h.c.SpellCheckComponent Loading spell index for spellchecker: default
2019-11-20 15:40:19.304 INFO  (searcherExecutor-10-thread-1-processing-x:book_store_core) [   x:book_store_core] o.a.s.h.c.SpellCheckComponent Loading spell index for spellchecker: wordbreak
2019-11-20 15:40:19.308 INFO  (searcherExecutor-10-thread-1-processing-x:book_store_core) [   x:book_store_core] o.a.s.c.SolrCore [book_store_core] Registered new searcher Searcher@308a2376[book_store_core] main{ExitableDirectoryReader(UninvertingDirectoryReader(Uninverting(_19(7.7.2):C13709:[diagnostics={os=Mac OS X, java.vendor=Oracle Corporation, java.version=1.8.0_221, java.vm.version=25.221-b11, lucene.version=7.7.2, mergeMaxNumSegments=-1, os.arch=x86_64, java.runtime.version=1.8.0_221-b11, source=merge, mergeFactor=2, os.version=10.14.6, timestamp=1569704274494}]:[attributes={Lucene50StoredFieldsFormat.mode=BEST_SPEED}])))}
2019-11-20 15:40:19.323 INFO  (searcherExecutor-11-thread-1-processing-x:e_store) [   x:e_store] o.a.s.c.S.Request [e_store]  webapp=null path=null params={q=static+firstSearcher+warming+in+solrconfig.xml&distrib=false&event=firstSearcher} hits=9737 status=0 QTime=33
2019-11-20 15:40:19.329 INFO  (searcherExecutor-11-thread-1-processing-x:e_store) [   x:e_store] o.a.s.c.QuerySenderListener QuerySenderListener done.
2019-11-20 15:40:19.329 INFO  (searcherExecutor-11-thread-1-processing-x:e_store) [   x:e_store] o.a.s.h.c.SpellCheckComponent Loading spell index for spellchecker: default
2019-11-20 15:40:19.329 INFO  (searcherExecutor-11-thread-1-processing-x:e_store) [   x:e_store] o.a.s.h.c.SpellCheckComponent Loading spell index for spellchecker: wordbreak
2019-11-20 15:40:19.330 INFO  (searcherExecutor-11-thread-1-processing-x:e_store) [   x:e_store] o.a.s.c.SolrCore [e_store] Registered new searcher Searcher@319b1752[e_store] main{ExitableDirectoryReader(UninvertingDirectoryReader(Uninverting(_5(7.7.2):C20000:[diagnostics={java.runtime.version=1.8.0_221-b11, java.vendor=Oracle Corporation, java.version=1.8.0_221, java.vm.version=25.221-b11, lucene.version=7.7.2, os=Mac OS X, os.arch=x86_64, os.version=10.15, source=flush, timestamp=1574264329645}]:[attributes={Lucene50StoredFieldsFormat.mode=BEST_SPEED}])))}
2019-11-20 15:40:23.886 INFO  (qtp1014166943-23) [   x:e_store] o.a.s.u.p.LogUpdateProcessorFactory [e_store]  webapp=/solr path=/update params={}{add=[c2d766ca982eca8304150849735ffef9 (1650735889709531136), 7f7036a6d550aaa89d34c77bd39a5e48 (1650735889732599808), f449ec65dcbc041b6ae5e6a32717d01b (1650735889742036992), 0973b37acd0c664e3de26e97e5571454 (1650735889743085568), bc940ea42ee6bef5ac7cea3fb5cfbee7 (1650735889744134144), c2a17313954882c1dba461863e98adf2 (1650735889745182720), ce5a6818f7707e2cb61fdcdbba61f5ad (1650735889747279872), 8542703ca9e6ebdf6d742638dfb1f2ca (1650735889748328448), 29c8d290caa451f97b1c32df64477a2c (1650735889752522752), 4044c0ac52c1ee4b28777417651faf42 (1650735889753571328), ... (20000 adds)]} 0 2716
2019-11-20 15:40:23.895 INFO  (qtp1014166943-14) [   x:e_store] o.a.s.u.DirectUpdateHandler2 start commit{_version_=1650735892550123520,optimize=false,openSearcher=true,waitSearcher=true,expungeDeletes=false,softCommit=false,prepareCommit=false}
2019-11-20 15:40:23.895 INFO  (qtp1014166943-14) [   x:e_store] o.a.s.u.SolrIndexWriter Calling setCommitData with IW:org.apache.solr.update.SolrIndexWriter@3b34af1c commitCommandVersion:1650735892550123520
2019-11-20 15:40:24.636 INFO  (qtp1014166943-14) [   x:e_store] o.a.s.s.SolrIndexSearcher Opening [Searcher@49b07646[e_store] main]
2019-11-20 15:40:24.637 INFO  (searcherExecutor-11-thread-1-processing-x:e_store) [   x:e_store] o.a.s.c.QuerySenderListener QuerySenderListener sending requests to Searcher@49b07646[e_store] main{ExitableDirectoryReader(UninvertingDirectoryReader(Uninverting(_6(7.7.2):C20000:[diagnostics={os=Mac OS X, java.vendor=Oracle Corporation, java.version=1.8.0_221, java.vm.version=25.221-b11, lucene.version=7.7.2, os.arch=x86_64, java.runtime.version=1.8.0_221-b11, source=flush, os.version=10.15, timestamp=1574264424583}]:[attributes={Lucene50StoredFieldsFormat.mode=BEST_SPEED}])))}
2019-11-20 15:40:24.637 INFO  (searcherExecutor-11-thread-1-processing-x:e_store) [   x:e_store] o.a.s.c.QuerySenderListener QuerySenderListener done.
2019-11-20 15:40:24.638 INFO  (qtp1014166943-14) [   x:e_store] o.a.s.u.DirectUpdateHandler2 end_commit_flush
2019-11-20 15:40:24.642 INFO  (searcherExecutor-11-thread-1-processing-x:e_store) [   x:e_store] o.a.s.c.SolrCore [e_store] Registered new searcher Searcher@49b07646[e_store] main{ExitableDirectoryReader(UninvertingDirectoryReader(Uninverting(_6(7.7.2):C20000:[diagnostics={os=Mac OS X, java.vendor=Oracle Corporation, java.version=1.8.0_221, java.vm.version=25.221-b11, lucene.version=7.7.2, os.arch=x86_64, java.runtime.version=1.8.0_221-b11, source=flush, os.version=10.15, timestamp=1574264424583}]:[attributes={Lucene50StoredFieldsFormat.mode=BEST_SPEED}])))}
2019-11-20 15:40:24.649 INFO  (qtp1014166943-14) [   x:e_store] o.a.s.u.p.LogUpdateProcessorFactory [e_store]  webapp=/solr path=/update params={commit=true}{commit=} 0 754
2019-11-20 15:40:49.462 INFO  (qtp1014166943-18) [   x:e_store] o.a.s.c.S.Request [e_store]  webapp=/solr path=/select params={q=product_name_suggest:"cloth"} hits=0 status=0 QTime=4
2019-11-20 15:40:57.393 INFO  (qtp1014166943-43) [   x:e_store] o.a.s.c.S.Request [e_store]  webapp=/solr path=/select params={q=product_name_suggest:"clo"} hits=0 status=0 QTime=0
2019-11-20 15:41:21.857 INFO  (ShutdownMonitor) [   ] o.e.j.s.AbstractConnector Stopped ServerConnector@13e3c1c7{HTTP/1.1,[http/1.1]}{0.0.0.0:8983}
2019-11-20 15:41:21.857 INFO  (ShutdownMonitor) [   ] o.e.j.s.session node0 Stopped scavenging
2019-11-20 15:41:21.858 INFO  (ShutdownMonitor) [   ] o.a.s.c.CoreContainer Shutting down CoreContainer instance=613784740
2019-11-20 15:41:21.859 INFO  (coreCloseExecutor-20-thread-1) [   x:e_store] o.a.s.c.SolrCore [e_store]  CLOSING SolrCore org.apache.solr.core.SolrCore@7a98c092
2019-11-20 15:41:21.859 INFO  (coreCloseExecutor-20-thread-2) [   x:book_store_core] o.a.s.c.SolrCore [book_store_core]  CLOSING SolrCore org.apache.solr.core.SolrCore@12088657
2019-11-20 15:41:21.859 INFO  (coreCloseExecutor-20-thread-1) [   x:e_store] o.a.s.m.SolrMetricManager Closing metric reporters for registry=solr.core.e_store, tag=7a98c092
2019-11-20 15:41:21.859 INFO  (coreCloseExecutor-20-thread-1) [   x:e_store] o.a.s.m.r.SolrJmxReporter Closing reporter [org.apache.solr.metrics.reporters.SolrJmxReporter@98690ae: rootName = null, domain = solr.core.e_store, service url = null, agent id = null] for registry solr.core.e_store / com.codahale.metrics.MetricRegistry@6476ce02
2019-11-20 15:41:21.868 INFO  (coreCloseExecutor-20-thread-2) [   x:book_store_core] o.a.s.m.SolrMetricManager Closing metric reporters for registry=solr.core.book_store_core, tag=12088657
2019-11-20 15:41:21.868 INFO  (coreCloseExecutor-20-thread-2) [   x:book_store_core] o.a.s.m.r.SolrJmxReporter Closing reporter [org.apache.solr.metrics.reporters.SolrJmxReporter@41660b21: rootName = null, domain = solr.core.book_store_core, service url = null, agent id = null] for registry solr.core.book_store_core / com.codahale.metrics.MetricRegistry@cf7af5e
2019-11-20 15:41:21.877 INFO  (ShutdownMonitor) [   ] o.a.s.m.SolrMetricManager Closing metric reporters for registry=solr.node, tag=null
2019-11-20 15:41:21.878 INFO  (ShutdownMonitor) [   ] o.a.s.m.r.SolrJmxReporter Closing reporter [org.apache.solr.metrics.reporters.SolrJmxReporter@2e554a3b: rootName = null, domain = solr.node, service url = null, agent id = null] for registry solr.node / com.codahale.metrics.MetricRegistry@3e86f643
2019-11-20 15:41:21.879 INFO  (ShutdownMonitor) [   ] o.a.s.m.SolrMetricManager Closing metric reporters for registry=solr.jvm, tag=null
2019-11-20 15:41:21.880 INFO  (ShutdownMonitor) [   ] o.a.s.m.r.SolrJmxReporter Closing reporter [org.apache.solr.metrics.reporters.SolrJmxReporter@5553d0f5: rootName = null, domain = solr.jvm, service url = null, agent id = null] for registry solr.jvm / com.codahale.metrics.MetricRegistry@d26eb4d
2019-11-20 15:41:21.881 INFO  (ShutdownMonitor) [   ] o.a.s.m.SolrMetricManager Closing metric reporters for registry=solr.jetty, tag=null
2019-11-20 15:41:21.881 INFO  (ShutdownMonitor) [   ] o.a.s.m.r.SolrJmxReporter Closing reporter [org.apache.solr.metrics.reporters.SolrJmxReporter@1af687fe: rootName = null, domain = solr.jetty, service url = null, agent id = null] for registry solr.jetty / com.codahale.metrics.MetricRegistry@42279b17
2019-11-20 15:41:21.886 INFO  (ShutdownMonitor) [   ] o.e.j.s.h.ContextHandler Stopped o.e.j.w.WebAppContext@291caca8{/solr,null,UNAVAILABLE}{/Users/sivjanap/Documents/MCS/final_project/solr-7.7.2/server/solr-webapp/webapp}
